Webscraping 101
…
That’s much better. A complete workflow might look like this:

threes <- url_nba %>% 
  read_html() %>% 
  html_elements("h3~ p+ p") %>% 
  html_text2() %>% 
  as_tibble() %>% 
  separate(value, into = c("year", "athlete", "city"), sep = "\\|") %>% 
  separate(athlete, into = c("athlete", "team"), sep = "\\(") %>% 
  mutate(team = str_remove_all(team, "\\)")) %>% 
  mutate(across(everything(), str_trim)) 

threes

# A tibble: 36 × 4
   year  athlete            team         city         
   <chr> <chr>              <chr>        <chr>        
 1 2022  Karl-Anthony Towns Timberwolves Cleveland    
 2 2021  Steph Curry        Warriors     Chicago      
 3 2020  Buddy Hield        Kings        Chicago      
 4 2019  Joe Harris         Nets         Charlotte    
 5 2018  Devin Booker       Suns         Los Angeles  
 6 2017  Eric Gordon        Rockets      New Orleans  
 7 2016  Klay Thompson      Warriors     Toronto      
 8 2015  Stephen Curry      Warriors     New York City
 9 2014  Marco Belinelli    Spurs        New Olreans  
10 2013  Kyrie Irving       Cavaliers    Houston      
# … with 26 more rows
…
